…
  mutate(Value = as.numeric(Value)) %>% 
  filter(!is.na(Value)) %>%
  mutate(Expt = paste(Location, Year),
         Time = ifelse(is.na(Time) | Time == "", "12:00:00", as.character(Time)),
         Date = as.Date(Date),
         DateTime = as.POSIXct(paste(Date, Time)),
         Location = factor(Location, levels = locs),
         LoggerID = factor(LoggerID, levels = unique(.$LoggerID)) )
# Create a color palette
myCols <- c("darkgreen", "darkred", "coral3", "deeppink3", "darkcyan",
          "burlywood4", "darkslateblue", "darkmagenta", "darkgoldenrod3")
# View table
dd %>% as_tibble()

## # A tibble: 355,207 x 11
##    Location  Year Date       Time  LoggerID Measurement Unit  Value
##    <fct>    <int> <date>     <chr> <fct>    <fct>       <fct> <dbl>
##  1 Bardiya~  2016 2016-11-14 06:4~ Weather~ Day Length  Hours  10.6
##  2 Bardiya~  2016 2016-11-15 06:4~ Weather~ Day Length  Hours  10.6
##  3 Bardiya~  2016 2016-11-16 06:4~ Weather~ Day Length  Hours  10.6
##  4 Bardiya~  2016 2016-11-17 06:4~ Weather~ Day Length  Hours  10.6
##  5 Bardiya~  2016 2016-11-18 06:4~ Weather~ Day Length  Hours  10.6
##  6 Bardiya~  2016 2016-11-19 06:4~ Weather~ Day Length  Hours  10.5
##  7 Bardiya~  2016 2016-11-20 06:4~ Weather~ Day Length  Hours  10.5
##  8 Bardiya~  2016 2016-11-21 06:5~ Weather~ Day Length  Hours  10.5
##  9 Bardiya~  2016 2016-11-22 06:5~ Weather~ Day Length  Hours  10.5
## 10 Bardiya~  2016 2016-11-23 06:5~ Weather~ Day Length  Hours  10.5
## # ... with 355,197 more rows, and 3 more variables: DaysAfterPlanting <int>,
## #   Expt <chr>, DateTime <dttm>
…
