Introduction to agData
…
agData_FAO_Crops

# Get Data
xx <- agData_FAO_Crops %>% as_tibble()
xx

## # A tibble: 1,670,351 x 6
##    Area        Crop         Year Measurement    Unit         Value
##    <fct>       <fct>       <dbl> <fct>          <fct>        <dbl>
##  1 Afghanistan Apples       1961 Area harvested hectares   2220   
##  2 Afghanistan Apples       1961 Yield          t/ha          6.80
##  3 Afghanistan Apples       1961 Production     tonnes    15100   
##  4 Afghanistan Apricots     1961 Area harvested hectares   4820   
##  5 Afghanistan Apricots     1961 Yield          t/ha          6.64
##  6 Afghanistan Apricots     1961 Production     tonnes    32000   
##  7 Afghanistan Barley       1961 Area harvested hectares 350000   
##  8 Afghanistan Barley       1961 Yield          t/ha          1.08
##  9 Afghanistan Barley       1961 Production     tonnes   378000   
## 10 Afghanistan Cotton lint  1961 Production     tonnes    17000   
## # ... with 1,670,341 more rows

# List Measurements
xx %>% distinct(Measurement, Unit)

## # A tibble: 3 x 2
##   Measurement    Unit    
##   <fct>          <fct>   
## 1 Area harvested hectares
## 2 Yield          t/ha    
## 3 Production     tonnes

# List Crops
xx %>% distinct(Crop)

## # A tibble: 151 x 1
##    Crop                           
##    <fct>                          
##  1 Apples                         
##  2 Apricots                       
##  3 Barley                         
##  4 Cotton lint                    
##  5 Cottonseed                     
##  6 Figs                           
##  7 Grapes                         
##  8 Linseed                        
##  9 Maize                          
## 10 Melons, other (inc.cantaloupes)
## # ... with 141 more rows

# Spread data to wide format
xx %>% select(-Unit) %>% spread(Measurement, Value) %>% arrange(Year)

## # A tibble: 587,214 x 6
##    Area        Crop                             Year `Area harvested` Production  Yield
##    <fct>       <fct>                           <dbl>            <dbl>      <dbl>  <dbl>
##  1 Afghanistan Apples                           1961             2220      15100  6.80 
##  2 Afghanistan Apricots                         1961             4820      32000  6.64 
##  3 Afghanistan Barley                           1961           350000     378000  1.08 
##  4 Afghanistan Cotton lint                      1961               NA      17000 NA    
##  5 Afghanistan Cottonseed                       1961               NA      34000 NA    
##  6 Afghanistan Figs                             1961             3200       8000  2.5  
##  7 Afghanistan Grapes                           1961            50000     225000  4.5  
##  8 Afghanistan Linseed                          1961            46800      17000  0.363
##  9 Afghanistan Maize                            1961           500000     700000  1.4  
## 10 Afghanistan Melons, other (inc.cantaloupes)  1961             3300      15700  4.76 
## # ... with 587,204 more rows
…
agData_FAO_LandUse

# Get Data
xx <- agData_FAO_LandUse %>% as_tibble()
xx

## # A tibble: 163,603 x 6
##    Area        Item                                Year Measurement Unit          Value
##    <fct>       <chr>                              <dbl> <fct>       <fct>         <dbl>
##  1 Afghanistan Country area                        1961 Area        1000 hectares 65286
##  2 Afghanistan Land area                           1961 Area        1000 hectares 65286
##  3 Afghanistan Agricultural area                   1961 Area        1000 hectares 37700
##  4 Afghanistan Arable land and Permanent crops     1961 Area        1000 hectares  7700
##  5 Afghanistan Arable land                         1961 Area        1000 hectares  7650
##  6 Afghanistan Permanent crops                     1961 Area        1000 hectares    50
##  7 Afghanistan Permanent meadows and pastures      1961 Area        1000 hectares 30000
##  8 Afghanistan Total area equipped for irrigation  1961 Area        1000 hectares  2380
##  9 Albania     Country area                        1961 Area        1000 hectares  2875
## 10 Albania     Land area                           1961 Area        1000 hectares  2740
## # ... with 163,593 more rows

# List Measurements
xx %>% distinct(Measurement, Unit)

## # A tibble: 2 x 2
##   Measurement                    Unit          
##   <fct>                          <fct>         
## 1 Area                           1000 hectares 
## 2 Carbon stock in living biomass million tonnes

# List Crops
xx %>% distinct(Item)

## # A tibble: 42 x 1
##    Item                              
##    <chr>                             
##  1 Country area                      
##  2 Land area                         
##  3 Agricultural area                 
##  4 Arable land and Permanent crops   
##  5 Arable land                       
##  6 Permanent crops                   
##  7 Permanent meadows and pastures    
##  8 Total area equipped for irrigation
##  9 Inland water                      
## 10 Forest                            
## # ... with 32 more rows
…
agData_FAO_Livestock

# Get Data
xx <- agData_FAO_Livestock %>% as_tibble()
xx

## # A tibble: 166,100 x 6
##    Area        Animal                Year Measurement Unit      Value
##    <fct>       <fct>                <dbl> <fct>       <fct>     <dbl>
##  1 Afghanistan Asses                 1961 Stocks      number  1300000
##  2 Afghanistan Camels                1961 Stocks      number   250000
##  3 Afghanistan Cattle                1961 Stocks      number  2900000
##  4 Afghanistan Chickens              1961 Stocks      number  4700000
##  5 Afghanistan Goats                 1961 Stocks      number  4200000
##  6 Afghanistan Horses                1961 Stocks      number   276841
##  7 Afghanistan Mules                 1961 Stocks      number    20000
##  8 Afghanistan Sheep                 1961 Stocks      number 18000000
##  9 Afghanistan Cattle and Buffaloes  1961 Stocks      number  2900000
## 10 Afghanistan Poultry Birds         1961 Stocks      number  4700000
## # ... with 166,090 more rows

# List Measurements
xx %>% distinct(Measurement, Unit)

## # A tibble: 1 x 2
##   Measurement Unit  
##   <fct>       <fct> 
## 1 Stocks      number

# List Crops
xx %>% distinct(Animal)

## # A tibble: 22 x 1
##    Animal              
##    <fct>               
##  1 Asses               
##  2 Camels              
##  3 Cattle              
##  4 Chickens            
##  5 Goats               
##  6 Horses              
##  7 Mules               
##  8 Sheep               
##  9 Cattle and Buffaloes
## 10 Poultry Birds       
## # ... with 12 more rows
…
agData_FAO_Trade

# Get Data
xx <- agData_FAO_Trade %>% as_tibble()
xx

## # A tibble: 12,488,329 x 6
##    Area        Crop             Year Measurement     Unit      Value
##    <fct>       <fct>           <dbl> <fct>           <fct>     <dbl>
##  1 Afghanistan Almonds shelled  1961 Export Quantity tonnes        0
##  2 Afghanistan Almonds shelled  1961 Export Value    1000 $USD     0
##  3 Afghanistan Apples           1961 Import Quantity tonnes        0
##  4 Afghanistan Apples           1961 Import Value    1000 $USD     0
##  5 Afghanistan Apples           1961 Export Quantity tonnes        0
##  6 Afghanistan Apples           1961 Export Value    1000 $USD     0
##  7 Afghanistan Apricots         1961 Export Quantity tonnes        0
##  8 Afghanistan Apricots         1961 Export Value    1000 $USD     0
##  9 Afghanistan Apricots, dry    1961 Export Quantity tonnes        0
## 10 Afghanistan Apricots, dry    1961 Export Value    1000 $USD     0
## # ... with 12,488,319 more rows
# List Measurements
xx %>% distinct(Measurement, Unit)

## # A tibble: 4 x 2
##   Measurement     Unit     
##   <fct>           <fct>    
## 1 Export Quantity tonnes   
## 2 Export Value    1000 $USD
## 3 Import Quantity tonnes   
## 4 Import Value    1000 $USD

# List Crops
xx %>% distinct(Crop)

## # A tibble: 471 x 1
##    Crop                          
##    <fct>                         
##  1 Almonds shelled               
##  2 Apples                        
##  3 Apricots                      
##  4 Apricots, dry                 
##  5 Bananas                       
##  6 Beer of barley                
##  7 Beverages, distilled alcoholic
##  8 Beverages, non alcoholic      
##  9 Bread                         
## 10 Butter, cow milk              
## # ... with 461 more rows
…
agData_FAO_Fertilizers

# Get Data
xx <- agData_FAO_Fertilizers %>% as_tibble()
xx

## # A tibble: 1,073,041 x 6
##    Area        Item                      Year Measurement      Unit   Value
##    <chr>       <chr>                    <dbl> <chr>            <chr>  <dbl>
##  1 Afghanistan Ammonia                   1961 Production       tonnes     0
##  2 Afghanistan Ammonia                   1961 Import Quantity  tonnes     0
##  3 Afghanistan Ammonia                   1961 Export Quantity  tonnes     0
##  4 Afghanistan Ammonia                   1961 Agricultural Use tonnes     0
##  5 Afghanistan Ammonium nitrate (AN)     1961 Production       tonnes     0
##  6 Afghanistan Ammonium nitrate (AN)     1961 Import Quantity  tonnes     0
##  7 Afghanistan Ammonium nitrate (AN)     1961 Export Quantity  tonnes     0
##  8 Afghanistan Ammonium nitrate (AN)     1961 Agricultural Use tonnes     0
##  9 Afghanistan Ammonium Phosphat (P2o5)  1961 Production       tonnes     0
## 10 Afghanistan Ammonium Phosphat (P2o5)  1961 Import Quantity  tonnes     0
## # ... with 1,073,031 more rows
…
## # A tibble: 5 x 2
##   Measurement      Unit  
##   <chr>            <chr> 
## 1 Production       tonnes
## 2 Import Quantity  tonnes
## 3 Export Quantity  tonnes
## 4 Agricultural Use tonnes
## 5 Other Uses       tonnes

# List Crops
xx %>% distinct(Item)

## # A tibble: 50 x 1
##    Item                    
##    <chr>                   
##  1 Ammonia                 
##  2 Ammonium nitrate (AN)   
##  3 Ammonium Phosphat (P2o5)
##  4 Ammonium Phosphate (N)  
##  5 Ammonium sulphate       
##  6 Ammonium SulphateNitrate
##  7 Basic Slag              
##  8 Calcium ammonium nitrate
##  9 Calcium Cyanamide       
## 10 Calcium Nitrate         
## # ... with 40 more rows
…
agData_FAO_Population

# Get Data
xx <- agData_FAO_Population %>% as_tibble()
xx

## # A tibble: 159,401 x 6
##    Area        Item        Year Measurement Unit      Value
##    <fct>       <chr>      <dbl> <fct>       <chr>     <dbl>
##  1 Afghanistan Population  1950 Total       People 7752118 
##  2 Afghanistan Population  1950 Male        People 4099243.
##  3 Afghanistan Population  1950 Female      People 3652874 
##  4 Afghanistan Population  1950 Rural       People 7019000 
##  5 Afghanistan Population  1950 Urban       People  432143 
##  6 Albania     Population  1950 Total       People 1263174 
##  7 Albania     Population  1950 Male        People  648220 
##  8 Albania     Population  1950 Female      People  614944 
##  9 Albania     Population  1950 Rural       People  965000 
## 10 Albania     Population  1950 Urban       People  249311 
## # ... with 159,391 more rows
…
agData_STATCAN_Beehives

# Get Data
xx <- agData_STATCAN_Beehives %>% as_tibble()
xx

## # A tibble: 5,633 x 6
##    Area                 Animal     Year Measurement Unit   Value
##    <fct>                <chr>     <int> <fct>       <fct>  <dbl>
##  1 British Columbia     Honeybees  1924 Beekeepers  number  2410
##  2 Alberta              Honeybees  1924 Beekeepers  number   160
##  3 Saskatchewan         Honeybees  1924 Beekeepers  number   410
##  4 Manitoba             Honeybees  1924 Beekeepers  number  1260
##  5 Ontario              Honeybees  1924 Beekeepers  number 10000
##  6 Quebec               Honeybees  1924 Beekeepers  number  7400
##  7 New Brunswick        Honeybees  1924 Beekeepers  number   360
##  8 Prince Edward Island Honeybees  1924 Beekeepers  number     5
##  9 Nova Scotia          Honeybees  1924 Beekeepers  number   200
## 10 Canada               Honeybees  1924 Beekeepers  number 22205
## # ... with 5,623 more rows
…
agData_STATCAN_Crops

# Get Data
xx <- agData_STATCAN_Crops %>% as_tibble()
xx

## # A tibble: 53,269 x 6
##    Area   Crop          Year Measurement Unit       Value
##    <fct>  <fct>        <int> <fct>       <fct>      <dbl>
##  1 Canada Barley        1908 Area seeded hectares  707100
##  2 Canada Beans         1908 Area seeded hectares   24200
##  3 Canada Buckwheat     1908 Area seeded hectares  117950
##  4 Canada Flaxseed      1908 Area seeded hectares   56000
##  5 Canada Mixed grains  1908 Area seeded hectares  235550
##  6 Canada Oats          1908 Area seeded hectares 3200550
##  7 Canada Peas          1908 Area seeded hectares  167050
##  8 Canada Rye           1908 Area seeded hectares   41281
##  9 Canada Sugar beets   1908 Area seeded hectares    4400
## 10 Canada Tame hay      1908 Area seeded hectares 3326000
## # ... with 53,259 more rows
…
## # A tibble: 5 x 2
##   Measurement        Unit    
##   <fct>              <fct>   
## 1 Area seeded        hectares
## 2 Yield              t/ha    
## 3 Production         tonnes  
## 4 Average farm price $CAD/t  
## 5 Area harvested     hectares

# List Crops
xx %>% distinct(Crop)

## # A tibble: 25 x 1
##    Crop        
##    <fct>       
##  1 Barley      
##  2 Beans       
##  3 Buckwheat   
##  4 Flaxseed    
##  5 Mixed grains
##  6 Oats        
##  7 Peas        
##  8 Rye         
##  9 Sugar beets 
## 10 Tame hay    
## # ... with 15 more rows
…
agData_STATCAN_Livestock

# Get Data
xx <- agData_STATCAN_Livestock %>% as_tibble()
xx

## # A tibble: 7,625 x 6
##    Area   Animal                   Year Measurement               Unit     Value
##    <fct>  <fct>                   <int> <fct>                     <fct>    <dbl>
##  1 Canada Total cattle and calves  1921 Number of animals         number 8369489
##  2 Canada Total pigs               1921 Number of farms reporting number  452935
##  3 Canada Total pigs               1921 Number of animals         number 3324291
##  4 Canada Total pigs               1921 Average number of animals number       7
##  5 Canada Total sheep and lambs    1921 Number of farms reporting number  161838
##  6 Canada Total sheep and lambs    1921 Number of animals         number 3200467
##  7 Canada Total sheep and lambs    1921 Average number of animals number      20
##  8 Canada Horses and ponies        1921 Number of farms reporting number  608272
##  9 Canada Horses and ponies        1921 Number of animals         number 3451752
## 10 Canada Horses and ponies        1921 Average number of animals number       6
## # ... with 7,615 more rows

# List Measurements
xx %>% distinct(Measurement, Unit)

## # A tibble: 3 x 2
##   Measurement               Unit  
##   <fct>                     <fct> 
## 1 Number of animals         number
## 2 Number of farms reporting number
## 3 Average number of animals number

# List Crops
xx %>% distinct(Animal)

## # A tibble: 26 x 1
##    Animal                         
##    <fct>                          
##  1 Total cattle and calves        
##  2 Total pigs                     
##  3 Total sheep and lambs          
##  4 Horses and ponies              
##  5 Total hens and chickens (birds)
##  6 Dairy cows                     
##  7 Beef cows                      
##  8 Total heifers                  
##  9 Bulls, 1 year and over         
## 10 Steers, 1 year and over        
## # ... with 16 more rows

# Spread data to wide format
xx %>% select(-Unit) %>% spread(Measurement, Value) %>% arrange(Year)

## # A tibble: 2,625 x 6
##    Area             Animal                           Year `Average number of animals` `Number of animals` `Number of farms reporting`
##    <fct>            <fct>                           <int>                       <dbl>               <dbl>                       <dbl>
##  1 British Columbia Horses and ponies                1921                           4               61385                       14609
##  2 British Columbia Total cattle and calves          1921                          NA              209207                          NA
##  3 British Columbia Total hens and chickens (birds)  1921                          NA             1967551                          NA
##  4 British Columbia Total pigs                       1921                           6               41685                        6878
##  5 British Columbia Total sheep and lambs            1921                          58               61344                        1052
##  6 Alberta          Horses and ponies                1921                          11              806244                       72992
##  7 Alberta          Total cattle and calves          1921                          NA             1383552                          NA
##  8 Alberta          Total hens and chickens (birds)  1921                          NA             4921870                          NA
##  9 Alberta          Total pigs                       1921                          10              423258                       41029
## 10 Alberta          Total sheep and lambs            1921                         105              431464                        4110
## # ... with 2,615 more rows
…
# Get Data
xx <- agData_STATCAN_FarmUse_Land %>% as_tibble()
xx

## # A tibble: 2,538 x 6
##    Area   Item                 Year Measurement Unit                       Value
##    <chr>  <fct>               <int> <fct>       <fct>                      <dbl>
##  1 Canada Total area of farms  1921 Area        Number of farms reporting 711090
##  2 Canada Total area of farms  1926 Area        Number of farms reporting     NA
##  3 Canada Total area of farms  1931 Area        Number of farms reporting 728623
##  4 Canada Total area of farms  1936 Area        Number of farms reporting     NA
##  5 Canada Total area of farms  1941 Area        Number of farms reporting 732832
##  6 Canada Total area of farms  1946 Area        Number of farms reporting     NA
##  7 Canada Total area of farms  1951 Area        Number of farms reporting 623087
##  8 Canada Total area of farms  1956 Area        Number of farms reporting 574993
##  9 Canada Total area of farms  1961 Area        Number of farms reporting 480877
## 10 Canada Total area of farms  1966 Area        Number of farms reporting 430503
## # ... with 2,528 more rows
…
agData_USDA_Crops

# Get Data
xx <- agData_USDA_Crops %>% as_tibble()
xx

## # A tibble: 2,555 x 6
##    Area  Crop   Measurement     Year Unit           Value
##    <fct> <fct>  <fct>          <dbl> <fct>          <dbl>
##  1 USA   Wheat  Area harvested  1866 hectares  6235402.  
##  2 USA   Wheat  Yield           1866 t/ha            0.74
##  3 USA   Wheat  Production      1866 tonnes    4618555.  
##  4 USA   Maize  Area harvested  1866 hectares 12147460.  
##  5 USA   Maize  Yield           1866 t/ha            1.52
##  6 USA   Maize  Production      1866 tonnes   18563517.  
##  7 USA   Barley Area harvested  1866 hectares   305133.  
##  8 USA   Barley Yield           1866 t/ha            1.29
##  9 USA   Barley Production      1866 tonnes     393972.  
## 10 USA   Oats   Area harvested  1866 hectares  3211183.  
## # ... with 2,545 more rows
…
